Nível 2 - Escalonador/nivel_2.vcd
$date
  Sat Nov  1 21:26:53 2025
$end
$version
  GHDL v0
$end
$timescale
  1 fs
$end
$scope module standard $end
$upscope $end
$scope module std_logic_1164 $end
$upscope $end
$scope module numeric_std $end
$upscope $end
$scope module tb_nivel_2 $end
$var reg 1 ! clk $end
$var reg 1 " reset $end
$var reg 5 # up_queue[4:0] $end
$var reg 1 $ up_queue_en $end
$var reg 5 % down_queue[4:0] $end
$var reg 1 & down_queue_en $end
$var reg 5 ' um_floor_sensor[4:0] $end
$var reg 5 ( dois_floor_sensor[4:0] $end
$var reg 5 ) tres_floor_sensor[4:0] $end
$var reg 2 * um_moving[1:0] $end
$var reg 2 + dois_moving[1:0] $end
$var reg 2 , tres_moving[1:0] $end
$var reg 5 - um_solicit_floor[4:0] $end
$var reg 5 . dois_solicit_floor[4:0] $end
$var reg 5 / tres_solicit_floor[4:0] $end
$var reg 1 0 solicit_dir $end
$var reg 1 1 solicit_en $end
$var reg 1 2 sim_finished $end
$scope module uut $end
$var reg 1 3 clk $end
$var reg 1 4 reset $end
$var reg 5 5 up_queue[4:0] $end
$var reg 1 6 up_queue_en $end
$var reg 5 7 down_queue[4:0] $end
$var reg 1 8 down_queue_en $end
$var reg 5 9 um_floor_sensor[4:0] $end
$var reg 5 : dois_floor_sensor[4:0] $end
$var reg 5 ; tres_floor_sensor[4:0] $end
$var reg 2 < um_moving[1:0] $end
$var reg 2 = dois_moving[1:0] $end
$var reg 2 > tres_moving[1:0] $end
$var reg 5 ? um_solicit_floor[4:0] $end
$var reg 5 @ dois_solicit_floor[4:0] $end
$var reg 5 A tres_solicit_floor[4:0] $end
$var reg 1 B solicit_dir $end
$var reg 1 C solicit_en $end
$var reg 5 D data_out[4:0] $end
$var reg 1 E data_dir $end
$var reg 5 F cham_ativa[4:0] $end
$var reg 1 G direction $end
$var reg 2 H um_elevator_cost[1:0] $end
$var reg 2 I dois_elevator_cost[1:0] $end
$var reg 2 J tres_elevator_cost[1:0] $end
$var reg 1 K enable $end
$var reg 5 L um_distancia[4:0] $end
$var reg 5 M dois_distancia[4:0] $end
$var reg 5 N tres_distancia[4:0] $end
$var reg 2 O elevador_vencedor_out[1:0] $end
$scope module u_fila $end
$var reg 1 P clk $end
$var reg 1 Q reset $end
$var reg 5 R up_queue[4:0] $end
$var reg 1 S up_wr_en $end
$var reg 5 T down_queue[4:0] $end
$var reg 1 U down_wr_en $end
$var reg 5 V data_out[4:0] $end
$var reg 1 W data_dir $end
$comment up_fila is not handled $end
$comment down_fila is not handled $end
$var reg 5 X down_rd_ptr[4:0] $end
$var reg 5 Y down_wr_ptr[4:0] $end
$var reg 5 Z up_rd_ptr[4:0] $end
$var reg 5 [ up_wr_ptr[4:0] $end
$var reg 5 \ up_qnt[4:0] $end
$var reg 5 ] down_qnt[4:0] $end
$var reg 1 ^ last_dir $end
$upscope $end
$scope module u_call_disp $end
$var reg 1 _ clk $end
$var reg 5 ` data_in[4:0] $end
$var reg 1 a data_dir $end
$var reg 5 b cham_ativa[4:0] $end
$var reg 1 c direction $end
$var reg 1 d data_en $end
$upscope $end
$scope module u_cost_calculator_um $end
$var reg 5 e call_floor[4:0] $end
$var reg 1 f direction $end
$var reg 5 g floor_sensor[4:0] $end
$var reg 2 h moving[1:0] $end
$var reg 2 i elevator_cost[1:0] $end
$var reg 1 j enable $end
$upscope $end
$scope module u_cost_calculator_dois $end
$var reg 5 k call_floor[4:0] $end
$var reg 1 l direction $end
$var reg 5 m floor_sensor[4:0] $end
$var reg 2 n moving[1:0] $end
$var reg 2 o elevator_cost[1:0] $end
$var reg 1 p enable $end
$upscope $end
$scope module u_cost_calculator_tres $end
$var reg 5 q call_floor[4:0] $end
$var reg 1 r direction $end
$var reg 5 s floor_sensor[4:0] $end
$var reg 2 t moving[1:0] $end
$var reg 2 u elevator_cost[1:0] $end
$var reg 1 v enable $end
$upscope $end
$scope module u_custo_distancia_um $end
$var reg 5 w chamada_ativa[4:0] $end
$var reg 5 x floor_sensor[4:0] $end
$var reg 5 y distancia[4:0] $end
$upscope $end
$scope module u_custo_distancia_dois $end
$var reg 5 z chamada_ativa[4:0] $end
$var reg 5 { floor_sensor[4:0] $end
$var reg 5 | distancia[4:0] $end
$upscope $end
$scope module u_custo_distancia_tres $end
$var reg 5 } chamada_ativa[4:0] $end
$var reg 5 !" floor_sensor[4:0] $end
$var reg 5 "" distancia[4:0] $end
$upscope $end
$scope module u_comparador_custo $end
$var reg 5 #" distancia_0_in[4:0] $end
$var reg 5 $" distancia_1_in[4:0] $end
$var reg 5 %" distancia_2_in[4:0] $end
$var reg 2 &" custo_elev_0_in[1:0] $end
$var reg 2 '" custo_elev_1_in[1:0] $end
$var reg 2 (" custo_elev_2_in[1:0] $end
$var reg 2 )" elevador_vencedor_out[1:0] $end
$upscope $end
$scope module u_gerador_saida $end
$var reg 1 *" clk $end
$var reg 1 +" enable $end
$var reg 5 ," chamada_ativa_in[4:0] $end
$var reg 1 -" direcao_in $end
$var reg 2 ." elevador_vencedor_in[1:0] $end
$var reg 5 /" solicite_0_out[4:0] $end
$var reg 5 0" solicite_1_out[4:0] $end
$var reg 5 1" solicite_2_out[4:0] $end
$var reg 1 2" descer_out $end
$var reg 1 3" solicit_enable_out $end
$upscope $end
$upscope $end
$upscope $end
$enddefinitions $end
#0
0!
1"
bUUUUU #
0$
bUUUUU %
0&
bUUUUU '
bUUUUU (
bUUUUU )
bUU *
bUU +
bUU ,
bUUUUU -
bUUUUU .
bUUUUU /
U0
U1
02
03
14
bUUUUU 5
06
bUUUUU 7
08
bUUUUU 9
bUUUUU :
bUUUUU ;
bUU <
bUU =
bUU >
bUUUUU ?
bUUUUU @
bUUUUU A
UB
UC
bUUUUU D
UE
bUUUUU F
UG
bUU H
bUU I
bUU J
0K
bXXXXX L
bXXXXX M
bXXXXX N
b00 O
0P
1Q
bUUUUU R
0S
bUUUUU T
0U
bUUUUU V
UW
b00000 X
b00000 Y
b00000 Z
b00000 [
b00000 \
b00000 ]
1^
0_
bUUUUU `
Ua
bUUUUU b
Uc
1d
bUUUUU e
Uf
bUUUUU g
bUU h
bUU i
0j
bUUUUU k
Ul
bUUUUU m
bUU n
bUU o
0p
bUUUUU q
Ur
bUUUUU s
bUU t
bUU u
0v
bUUUUU w
bUUUUU x
bXXXXX y
bUUUUU z
bUUUUU {
bXXXXX |
bUUUUU }
bUUUUU !"
bXXXXX ""
bXXXXX #"
bXXXXX $"
bXXXXX %"
bUU &"
bUU '"
bUU ("
b00 )"
0*"
0+"
bUUUUU ,"
U-"
b00 ."
bUUUUU /"
bUUUUU 0"
bUUUUU 1"
U2"
U3"
#10000000
1!
0"
b00010 #
1$
b00000 %
b00010 '
b00000 (
b00000 )
b00 *
b00 +
b00 ,
b00000 -
b00000 .
b00000 /
01
13
04
b00010 5
16
b00000 7
b00010 9
b00000 :
b00000 ;
b00 <
b00 =
b00 >
b00000 ?
b00000 @
b00000 A
0C
b00000 D
1P
0Q
b00010 R
1S
b00000 T
b00000 V
b00001 [
b00001 \
1_
b00000 `
0d
b00010 g
b00 h
0j
b00000 m
b00 n
0p
b00000 s
b00 t
0v
b00010 x
b00000 {
b00000 !"
1*"
b00000 /"
b00000 0"
b00000 1"
03"
#20000000
0!
03
b00010 D
1E
0P
b00010 V
1W
b00001 Z
b00000 \
0^
0_
b00010 `
1a
1d
0*"
#30000000
1!
0$
13
06
b00000 D
b00010 F
1G
b01 H
b01 I
b01 J
1K
b00000 L
b00010 M
b00010 N
1P
0S
b00000 V
1_
b00000 `
b00010 b
1c
0d
b00010 e
1f
b01 i
1j
b00010 k
1l
b01 o
1p
b00010 q
1r
b01 u
1v
b00010 w
b00000 y
b00010 z
b00010 |
b00010 }
b00010 ""
b00000 #"
b00010 $"
b00010 %"
b01 &"
b01 '"
b01 ("
1*"
1+"
b00010 ,"
1-"
#40000000
0!
03
0E
0P
0W
1^
0_
0a
0*"
#50000000
1!
b00000 #
b01010 %
1&
b00001 '
b00010 (
b01011 )
b10 +
b01 ,
b00010 -
10
11
13
b00000 5
b01010 7
18
b00001 9
b00010 :
b01011 ;
b10 =
b01 >
b00010 ?
1B
1C
b00000 F
b10 I
b10 J
0K
b00001 L
b00000 M
b01001 N
1P
b00000 R
b01010 T
1U
b00001 Y
b00001 ]
1_
b00000 b
b00000 e
b00001 g
b01 i
0j
b00000 k
b00010 m
b10 n
b10 o
0p
b00000 q
b01011 s
b01 t
b10 u
0v
b00000 w
b00001 x
b00001 y
b00000 z
b00010 {
b00000 |
b00000 }
b01011 !"
b01001 ""
b00001 #"
b00000 $"
b01001 %"
b10 '"
b10 ("
1*"
0+"
b00000 ,"
b00010 /"
12"
13"
#60000000
0!
03
b01010 D
0P
b01010 V
b00001 X
b00000 ]
0^
0_
b01010 `
1d
0*"
#70000000
1!
0&
b00000 -
01
13
08
b00000 ?
0C
b00000 D
b01010 F
0G
1K
b01001 L
b01000 M
b00001 N
1P
0U
b00000 V
1_
b00000 `
b01010 b
0c
0d
b01010 e
0f
b01 i
1j
b01010 k
0l
b10 o
1p
b01010 q
0r
b10 u
1v
b01010 w
b01001 y
b01010 z
b01000 |
b01010 }
b00001 ""
b01001 #"
b01000 $"
b00001 %"
1*"
1+"
b01010 ,"
0-"
b00000 /"
03"
#80000000
0!
03
0P
1^
0_
0*"
#90000000
1!
b00000 %
b00000 '
b00000 (
b00000 )
b00 +
b00 ,
b01010 -
00
11
13
b00000 7
b00000 9
b00000 :
b00000 ;
b00 =
b00 >
b01010 ?
0B
1C
b00000 F
b01 I
b01 J
0K
b01010 L
b01010 M
b01010 N
1P
b00000 T
1_
b00000 b
b00000 e
b00000 g
b01 i
0j
b00000 k
b00000 m
b00 n
b01 o
0p
b00000 q
b00000 s
b00 t
b01 u
0v
b00000 w
b00000 x
b01010 y
b00000 z
b00000 {
b01010 |
b00000 }
b00000 !"
b01010 ""
b01010 #"
b01010 $"
b01010 %"
b01 '"
b01 ("
1*"
0+"
b00000 ,"
b01010 /"
02"
13"
#100000000
0!
03
1E
0P
1W
0^
0_
1a
0*"
#110000000
1!
b00000 -
01
13
b00000 ?
0C
1P
1_
1*"
b00000 /"
03"
#120000000
0!
03
0E
0P
0W
1^
0_
0a
0*"
#130000000
1!
b00010 #
1$
b01001 '
b00101 )
b10 *
b01 ,
13
b00010 5
16
b01001 9
b00101 ;
b10 <
b01 >
1P
b00010 R
1S
b00010 [
b00001 \
1_
b01001 g
b10 h
0j
0p
b00101 s
b01 t
0v
b01001 x
b00101 !"
1*"
#140000000
0!
03
b00010 D
1E
0P
b00010 V
1W
b00010 Z
b00000 \
0^
0_
b00010 `
1a
1d
0*"
#150000000
1!
0$
13
06
b00000 D
b00010 F
1G
b10 H
b10 J
1K
b00111 L
b00010 M
b00011 N
b01 O
1P
0S
b00000 V
1_
b00000 `
b00010 b
1c
0d
b00010 e
1f
b10 i
1j
b00010 k
1l
b01 o
1p
b00010 q
1r
b10 u
1v
b00010 w
b00111 y
b00010 z
b00010 |
b00010 }
b00011 ""
b00111 #"
b00010 $"
b00011 %"
b10 &"
b10 ("
b01 )"
1*"
1+"
b00010 ,"
1-"
b01 ."
#160000000
0!
03
0E
0P
0W
1^
0_
0a
0*"
#170000000
1!
b00010 .
10
11
12
13
b00010 @
1B
1C
b00000 F
0K
1P
1_
b00000 b
b00000 e
0j
b00000 k
0p
b00000 q
0v
b00000 w
b00000 z
b00000 }
1*"
0+"
b00000 ,"
b00010 0"
12"
13"
