Nível 2 - Escalonador/nivel_2.vcd
$date
  Sat Nov  1 15:17:14 2025
$end
$version
  GHDL v0
$end
$timescale
  1 fs
$end
$scope module standard $end
$upscope $end
$scope module std_logic_1164 $end
$upscope $end
$scope module numeric_std $end
$upscope $end
$scope module tb_nivel_2 $end
$var reg 1 ! clk $end
$var reg 1 " reset $end
$var reg 5 # up_queue[4:0] $end
$var reg 1 $ up_queue_en $end
$var reg 5 % down_queue[4:0] $end
$var reg 1 & down_queue_en $end
$var reg 5 ' um_floor_sensor[4:0] $end
$var reg 5 ( dois_floor_sensor[4:0] $end
$var reg 5 ) tres_floor_sensor[4:0] $end
$var reg 2 * um_moving[1:0] $end
$var reg 2 + dois_moving[1:0] $end
$var reg 2 , tres_moving[1:0] $end
$var reg 5 - um_solicit_floor[4:0] $end
$var reg 5 . dois_solicit_floor[4:0] $end
$var reg 5 / tres_solicit_floor[4:0] $end
$var reg 1 0 solicit_dir $end
$var reg 1 1 solicit_en $end
$scope module uut $end
$var reg 1 2 clk $end
$var reg 1 3 reset $end
$var reg 5 4 up_queue[4:0] $end
$var reg 1 5 up_queue_en $end
$var reg 5 6 down_queue[4:0] $end
$var reg 1 7 down_queue_en $end
$var reg 5 8 um_floor_sensor[4:0] $end
$var reg 5 9 dois_floor_sensor[4:0] $end
$var reg 5 : tres_floor_sensor[4:0] $end
$var reg 2 ; um_moving[1:0] $end
$var reg 2 < dois_moving[1:0] $end
$var reg 2 = tres_moving[1:0] $end
$var reg 5 > um_solicit_floor[4:0] $end
$var reg 5 ? dois_solicit_floor[4:0] $end
$var reg 5 @ tres_solicit_floor[4:0] $end
$var reg 1 A solicit_dir $end
$var reg 1 B solicit_en $end
$var reg 5 C data_out[4:0] $end
$var reg 1 D data_dir $end
$var reg 5 E cham_ativa[4:0] $end
$var reg 1 F direction $end
$var reg 2 G um_elevator_cost[1:0] $end
$var reg 2 H dois_elevator_cost[1:0] $end
$var reg 2 I tres_elevator_cost[1:0] $end
$var reg 1 J enable $end
$var reg 5 K um_distancia[4:0] $end
$var reg 5 L dois_distancia[4:0] $end
$var reg 5 M tres_distancia[4:0] $end
$var reg 2 N elevador_vencedor_out[1:0] $end
$scope module u_fila $end
$var reg 1 O clk $end
$var reg 1 P reset $end
$var reg 5 Q up_queue[4:0] $end
$var reg 1 R up_wr_en $end
$var reg 5 S down_queue[4:0] $end
$var reg 1 T down_wr_en $end
$var reg 5 U data_out[4:0] $end
$var reg 1 V data_dir $end
$comment up_fila is not handled $end
$comment down_fila is not handled $end
$var reg 5 W down_rd_ptr[4:0] $end
$var reg 5 X down_wr_ptr[4:0] $end
$var reg 5 Y up_rd_ptr[4:0] $end
$var reg 5 Z up_wr_ptr[4:0] $end
$var reg 5 [ up_qnt[4:0] $end
$var reg 5 \ down_qnt[4:0] $end
$var reg 1 ] last_dir $end
$upscope $end
$scope module u_call_disp $end
$var reg 1 ^ clk $end
$var reg 5 _ data_in[4:0] $end
$var reg 1 ` data_dir $end
$var reg 5 a cham_ativa[4:0] $end
$var reg 1 b direction $end
$var reg 1 c data_en $end
$upscope $end
$scope module u_cost_calculator_um $end
$var reg 5 d call_floor[4:0] $end
$var reg 1 e direction $end
$var reg 5 f floor_sensor[4:0] $end
$var reg 2 g moving[1:0] $end
$var reg 2 h elevator_cost[1:0] $end
$var reg 1 i enable $end
$upscope $end
$scope module u_cost_calculator_dois $end
$var reg 5 j call_floor[4:0] $end
$var reg 1 k direction $end
$var reg 5 l floor_sensor[4:0] $end
$var reg 2 m moving[1:0] $end
$var reg 2 n elevator_cost[1:0] $end
$var reg 1 o enable $end
$upscope $end
$scope module u_cost_calculator_tres $end
$var reg 5 p call_floor[4:0] $end
$var reg 1 q direction $end
$var reg 5 r floor_sensor[4:0] $end
$var reg 2 s moving[1:0] $end
$var reg 2 t elevator_cost[1:0] $end
$var reg 1 u enable $end
$upscope $end
$scope module u_custo_distancia_um $end
$var reg 5 v chamada_ativa[4:0] $end
$var reg 5 w floor_sensor[4:0] $end
$var reg 5 x distancia[4:0] $end
$upscope $end
$scope module u_custo_distancia_dois $end
$var reg 5 y chamada_ativa[4:0] $end
$var reg 5 z floor_sensor[4:0] $end
$var reg 5 { distancia[4:0] $end
$upscope $end
$scope module u_custo_distancia_tres $end
$var reg 5 | chamada_ativa[4:0] $end
$var reg 5 } floor_sensor[4:0] $end
$var reg 5 !" distancia[4:0] $end
$upscope $end
$scope module u_comparador_custo $end
$var reg 5 "" distancia_0_in[4:0] $end
$var reg 5 #" distancia_1_in[4:0] $end
$var reg 5 $" distancia_2_in[4:0] $end
$var reg 2 %" custo_elev_0_in[1:0] $end
$var reg 2 &" custo_elev_1_in[1:0] $end
$var reg 2 '" custo_elev_2_in[1:0] $end
$var reg 2 (" elevador_vencedor_out[1:0] $end
$upscope $end
$scope module u_gerador_saida $end
$var reg 1 )" clk $end
$var reg 1 *" enable $end
$var reg 5 +" chamada_ativa_in[4:0] $end
$var reg 1 ," direcao_in $end
$var reg 2 -" elevador_vencedor_in[1:0] $end
$var reg 5 ." solicite_0_out[4:0] $end
$var reg 5 /" solicite_1_out[4:0] $end
$var reg 5 0" solicite_2_out[4:0] $end
$var reg 1 1" descer_out $end
$var reg 1 2" solicit_enable_out $end
$upscope $end
$upscope $end
$upscope $end
$enddefinitions $end
#0
0!
1"
bUUUUU #
0$
bUUUUU %
0&
bUUUUU '
bUUUUU (
bUUUUU )
bUU *
bUU +
bUU ,
bUUUUU -
bUUUUU .
bUUUUU /
U0
U1
02
13
bUUUUU 4
05
bUUUUU 6
07
bUUUUU 8
bUUUUU 9
bUUUUU :
bUU ;
bUU <
bUU =
bUUUUU >
bUUUUU ?
bUUUUU @
UA
UB
bUUUUU C
UD
bUUUUU E
UF
bUU G
bUU H
bUU I
0J
bXXXXX K
bXXXXX L
bXXXXX M
b00 N
0O
1P
bUUUUU Q
0R
bUUUUU S
0T
bUUUUU U
UV
b00000 W
b00000 X
b00000 Y
b00000 Z
b00000 [
b00000 \
1]
0^
bUUUUU _
U`
bUUUUU a
Ub
1c
bUUUUU d
Ue
bUUUUU f
bUU g
bUU h
0i
bUUUUU j
Uk
bUUUUU l
bUU m
bUU n
0o
bUUUUU p
Uq
bUUUUU r
bUU s
bUU t
0u
bUUUUU v
bUUUUU w
bXXXXX x
bUUUUU y
bUUUUU z
bXXXXX {
bUUUUU |
bUUUUU }
bXXXXX !"
bXXXXX ""
bXXXXX #"
bXXXXX $"
bUU %"
bUU &"
bUU '"
b00 ("
0)"
0*"
bUUUUU +"
U,"
b00 -"
bUUUUU ."
bUUUUU /"
bUUUUU 0"
U1"
U2"
#10000000
1!
0"
b00010 #
1$
b00000 %
b00010 '
b00000 (
b00000 )
b00 *
b00 +
b00 ,
b00000 -
b00000 .
b00000 /
01
12
03
b00010 4
15
b00000 6
b00010 8
b00000 9
b00000 :
b00 ;
b00 <
b00 =
b00000 >
b00000 ?
b00000 @
0B
b00000 C
1O
0P
b00010 Q
1R
b00000 S
b00000 U
b00001 Z
b00001 [
1^
b00000 _
0c
b00010 f
b00 g
0i
b00000 l
b00 m
0o
b00000 r
b00 s
0u
b00010 w
b00000 z
b00000 }
1)"
b00000 ."
b00000 /"
b00000 0"
02"
#20000000
0!
02
b00010 C
1D
0O
b00010 U
1V
b00001 Y
b00000 [
0]
0^
b00010 _
1`
1c
0)"
#30000000
1!
0$
12
05
b00000 C
b00010 E
1F
b01 G
b01 H
b01 I
1J
b00000 K
b00010 L
b00010 M
1O
0R
b00000 U
1^
b00000 _
b00010 a
1b
0c
b00010 d
1e
b01 h
1i
b00010 j
1k
b01 n
1o
b00010 p
1q
b01 t
1u
b00010 v
b00000 x
b00010 y
b00010 {
b00010 |
b00010 !"
b00000 ""
b00010 #"
b00010 $"
b01 %"
b01 &"
b01 '"
1)"
1*"
b00010 +"
1,"
#40000000
0!
02
0D
0O
0V
1]
0^
0`
0)"
#50000000
1!
b00000 #
b01010 %
1&
b00001 '
b00010 (
b01011 )
b10 +
b01 ,
b00010 -
10
11
12
b00000 4
b01010 6
17
b00001 8
b00010 9
b01011 :
b10 <
b01 =
b00010 >
1A
1B
b00000 E
b10 H
b10 I
0J
b00001 K
b00000 L
b01001 M
1O
b00000 Q
b01010 S
1T
b00001 X
b00001 \
1^
b00000 a
b00000 d
b00001 f
b01 h
0i
b00000 j
b00010 l
b10 m
b10 n
0o
b00000 p
b01011 r
b01 s
b10 t
0u
b00000 v
b00001 w
b00001 x
b00000 y
b00010 z
b00000 {
b00000 |
b01011 }
b01001 !"
b00001 ""
b00000 #"
b01001 $"
b10 &"
b10 '"
1)"
0*"
b00000 +"
b00010 ."
11"
12"
#60000000
0!
02
b01010 C
0O
b01010 U
b00001 W
b00000 \
0]
0^
b01010 _
1c
0)"
#70000000
1!
0&
b00000 -
01
12
07
b00000 >
0B
b00000 C
b01010 E
0F
1J
b01001 K
b01000 L
b00001 M
1O
0T
b00000 U
1^
b00000 _
b01010 a
0b
0c
b01010 d
0e
b01 h
1i
b01010 j
0k
b10 n
1o
b01010 p
0q
b10 t
1u
b01010 v
b01001 x
b01010 y
b01000 {
b01010 |
b00001 !"
b01001 ""
b01000 #"
b00001 $"
1)"
1*"
b01010 +"
0,"
b00000 ."
02"
#80000000
0!
02
0O
1]
0^
0)"
#90000000
1!
b00000 %
b00000 '
b00000 (
b00000 )
b00 +
b00 ,
b01010 -
00
11
12
b00000 6
b00000 8
b00000 9
b00000 :
b00 <
b00 =
b01010 >
0A
1B
b00000 E
b01 H
b01 I
0J
b01010 K
b01010 L
b01010 M
1O
b00000 S
1^
b00000 a
b00000 d
b00000 f
b01 h
0i
b00000 j
b00000 l
b00 m
b01 n
0o
b00000 p
b00000 r
b00 s
b01 t
0u
b00000 v
b00000 w
b01010 x
b00000 y
b00000 z
b01010 {
b00000 |
b00000 }
b01010 !"
b01010 ""
b01010 #"
b01010 $"
b01 &"
b01 '"
1)"
0*"
b00000 +"
b01010 ."
01"
12"
#100000000
0!
02
1D
0O
1V
0]
0^
1`
0)"
#110000000
1!
b00000 -
01
12
b00000 >
0B
1O
1^
1)"
b00000 ."
02"
#120000000
0!
02
0D
0O
0V
1]
0^
0`
0)"
#130000000
1!
b00010 #
1$
b01001 '
b00101 )
b10 *
b01 ,
12
b00010 4
15
b01001 8
b00101 :
b10 ;
b01 =
1O
b00010 Q
1R
b00010 Z
b00001 [
1^
b01001 f
b10 g
0i
0o
b00101 r
b01 s
0u
b01001 w
b00101 }
1)"
#140000000
0!
02
b00010 C
1D
0O
b00010 U
1V
b00010 Y
b00000 [
0]
0^
b00010 _
1`
1c
0)"
#150000000
1!
0$
12
05
b00000 C
b00010 E
1F
b10 G
b10 I
1J
b00111 K
b00010 L
b00011 M
b01 N
1O
0R
b00000 U
1^
b00000 _
b00010 a
1b
0c
b00010 d
1e
b10 h
1i
b00010 j
1k
b01 n
1o
b00010 p
1q
b10 t
1u
b00010 v
b00111 x
b00010 y
b00010 {
b00010 |
b00011 !"
b00111 ""
b00010 #"
b00011 $"
b10 %"
b10 '"
b01 ("
1)"
1*"
b00010 +"
1,"
b01 -"
#160000000
0!
02
0D
0O
0V
1]
0^
0`
0)"
#170000000
1!
b00010 .
10
11
12
b00010 ?
1A
1B
b00000 E
0J
1O
1^
b00000 a
b00000 d
0i
b00000 j
0o
b00000 p
0u
b00000 v
b00000 y
b00000 |
1)"
0*"
b00000 +"
b00010 /"
11"
12"
#180000000
0!
02
1D
0O
1V
0]
0^
1`
0)"
#190000000
1!
b00000 .
01
12
b00000 ?
0B
1O
1^
1)"
b00000 /"
02"
#200000000
0!
02
0D
0O
0V
1]
0^
0`
0)"
#210000000
1!
12
1O
1^
1)"
#220000000
0!
02
1D
0O
1V
0]
0^
1`
0)"
#230000000
1!
12
1O
1^
1)"
#240000000
0!
02
0D
0O
0V
1]
0^
0`
0)"
#250000000
1!
12
1O
1^
1)"
#260000000
0!
02
1D
0O
1V
0]
0^
1`
0)"
#270000000
1!
12
1O
1^
1)"
#280000000
0!
02
0D
0O
0V
1]
0^
0`
0)"
#290000000
1!
12
1O
1^
1)"
#300000000
0!
02
1D
0O
1V
0]
0^
1`
0)"
#310000000
1!
12
1O
1^
1)"
#320000000
0!
02
0D
0O
0V
1]
0^
0`
0)"
#330000000
1!
12
1O
1^
1)"
#340000000
0!
02
1D
0O
1V
0]
0^
1`
0)"
#350000000
1!
12
1O
1^
1)"
#360000000
0!
02
0D
0O
0V
1]
0^
0`
0)"
#370000000
1!
12
1O
1^
1)"
#380000000
0!
02
1D
0O
1V
0]
0^
1`
0)"
#390000000
1!
12
1O
1^
1)"
#400000000
0!
02
0D
0O
0V
1]
0^
0`
0)"
#410000000
1!
12
1O
1^
1)"
#420000000
0!
02
1D
0O
1V
0]
0^
1`
0)"
#430000000
1!
12
1O
1^
1)"
#440000000
0!
02
0D
0O
0V
1]
0^
0`
0)"
#450000000
1!
12
1O
1^
1)"
#460000000
0!
02
1D
0O
1V
0]
0^
1`
0)"
#470000000
1!
12
1O
1^
1)"
#480000000
0!
02
0D
0O
0V
1]
0^
0`
0)"
#490000000
1!
12
1O
1^
1)"
#500000000
0!
02
1D
0O
1V
0]
0^
1`
0)"
#510000000
1!
12
1O
1^
1)"
#520000000
0!
02
0D
0O
0V
1]
0^
0`
0)"
#530000000
1!
12
1O
1^
1)"
#540000000
0!
02
1D
0O
1V
0]
0^
1`
0)"
#550000000
1!
12
1O
1^
1)"
#560000000
0!
02
0D
0O
0V
1]
0^
0`
0)"
#570000000
1!
12
1O
1^
1)"
#580000000
0!
02
1D
0O
1V
0]
0^
1`
0)"
#590000000
1!
12
1O
1^
1)"
#600000000
0!
02
0D
0O
0V
1]
0^
0`
0)"
#610000000
1!
12
1O
1^
1)"
#620000000
0!
02
1D
0O
1V
0]
0^
1`
0)"
#630000000
1!
12
1O
1^
1)"
#640000000
0!
02
0D
0O
0V
1]
0^
0`
0)"
#650000000
1!
12
1O
1^
1)"
#660000000
0!
02
1D
0O
1V
0]
0^
1`
0)"
#670000000
1!
12
1O
1^
1)"
#680000000
0!
02
0D
0O
0V
1]
0^
0`
0)"
#690000000
1!
12
1O
1^
1)"
#700000000
0!
02
1D
0O
1V
0]
0^
1`
0)"
#710000000
1!
12
1O
1^
1)"
#720000000
0!
02
0D
0O
0V
1]
0^
0`
0)"
#730000000
1!
12
1O
1^
1)"
#740000000
0!
02
1D
0O
1V
0]
0^
1`
0)"
#750000000
1!
12
1O
1^
1)"
#760000000
0!
02
0D
0O
0V
1]
0^
0`
0)"
#770000000
1!
12
1O
1^
1)"
#780000000
0!
02
1D
0O
1V
0]
0^
1`
0)"
#790000000
1!
12
1O
1^
1)"
#800000000
0!
02
0D
0O
0V
1]
0^
0`
0)"
#810000000
1!
12
1O
1^
1)"
#820000000
0!
02
1D
0O
1V
0]
0^
1`
0)"
#830000000
1!
12
1O
1^
1)"
#840000000
0!
02
0D
0O
0V
1]
0^
0`
0)"
#850000000
1!
12
1O
1^
1)"
#860000000
0!
02
1D
0O
1V
0]
0^
1`
0)"
#870000000
1!
12
1O
1^
1)"
#880000000
0!
02
0D
0O
0V
1]
0^
0`
0)"
#890000000
1!
12
1O
1^
1)"
#900000000
0!
02
1D
0O
1V
0]
0^
1`
0)"
#910000000
1!
12
1O
1^
1)"
#920000000
0!
02
0D
0O
0V
1]
0^
0`
0)"
#930000000
1!
12
1O
1^
1)"
#940000000
0!
02
1D
0O
1V
0]
0^
1`
0)"
#950000000
1!
12
1O
1^
1)"
#960000000
0!
02
0D
0O
0V
1]
0^
0`
0)"
#970000000
1!
12
1O
1^
1)"
#980000000
0!
02
1D
0O
1V
0]
0^
1`
0)"
#990000000
1!
12
1O
1^
1)"
#1000000000
0!
02
0D
0O
0V
1]
0^
0`
0)"
#1010000000
1!
12
1O
1^
1)"
#1020000000
0!
02
1D
0O
1V
0]
0^
1`
0)"
#1030000000
1!
12
1O
1^
1)"
#1040000000
0!
02
0D
0O
0V
1]
0^
0`
0)"
#1050000000
1!
12
1O
1^
1)"
#1060000000
0!
02
1D
0O
1V
0]
0^
1`
0)"
#1070000000
1!
12
1O
1^
1)"
#1080000000
0!
02
0D
0O
0V
1]
0^
0`
0)"
#1090000000
1!
12
1O
1^
1)"
#1100000000
0!
02
1D
0O
1V
0]
0^
1`
0)"
#1110000000
1!
12
1O
1^
1)"
#1120000000
0!
02
0D
0O
0V
1]
0^
0`
0)"
#1130000000
1!
12
1O
1^
1)"
#1140000000
0!
02
1D
0O
1V
0]
0^
1`
0)"
#1150000000
1!
12
1O
1^
1)"
#1160000000
0!
02
0D
0O
0V
1]
0^
0`
0)"
#1170000000
1!
12
1O
1^
1)"
#1180000000
0!
02
1D
0O
1V
0]
0^
1`
0)"
#1190000000
1!
12
1O
1^
1)"
#1200000000
0!
02
0D
0O
0V
1]
0^
0`
0)"
#1210000000
1!
12
1O
1^
1)"
#1220000000
0!
02
1D
0O
1V
0]
0^
1`
0)"
#1230000000
1!
12
1O
1^
1)"
#1240000000
0!
02
0D
0O
0V
1]
0^
0`
0)"
#1250000000
1!
12
1O
1^
1)"
#1260000000
0!
02
1D
0O
1V
0]
0^
1`
0)"
#1270000000
1!
12
1O
1^
1)"
#1280000000
0!
02
0D
0O
0V
1]
0^
0`
0)"
#1290000000
1!
12
1O
1^
1)"
#1300000000
0!
02
1D
0O
1V
0]
0^
1`
0)"
#1310000000
1!
12
1O
1^
1)"
#1320000000
0!
02
0D
0O
0V
1]
0^
0`
0)"
#1330000000
1!
12
1O
1^
1)"
#1340000000
0!
02
1D
0O
1V
0]
0^
1`
0)"
#1350000000
1!
12
1O
1^
1)"
#1360000000
0!
02
0D
0O
0V
1]
0^
0`
0)"
#1370000000
1!
12
1O
1^
1)"
#1380000000
0!
02
1D
0O
1V
0]
0^
1`
0)"
#1390000000
1!
12
1O
1^
1)"
#1400000000
0!
02
0D
0O
0V
1]
0^
0`
0)"
#1410000000
1!
12
1O
1^
1)"
#1420000000
0!
02
1D
0O
1V
0]
0^
1`
0)"
#1430000000
1!
12
1O
1^
1)"
#1440000000
0!
02
0D
0O
0V
1]
0^
0`
0)"
#1450000000
1!
12
1O
1^
1)"
#1460000000
0!
02
1D
0O
1V
0]
0^
1`
0)"
#1470000000
1!
12
1O
1^
1)"
#1480000000
0!
02
0D
0O
0V
1]
0^
0`
0)"
#1490000000
1!
12
1O
1^
1)"
#1500000000
0!
02
1D
0O
1V
0]
0^
1`
0)"
#1510000000
1!
12
1O
1^
1)"
#1520000000
0!
02
0D
0O
0V
1]
0^
0`
0)"
#1530000000
1!
12
1O
1^
1)"
#1540000000
0!
02
1D
0O
1V
0]
0^
1`
0)"
#1550000000
1!
12
1O
1^
1)"
#1560000000
0!
02
0D
0O
0V
1]
0^
0`
0)"
#1570000000
1!
12
1O
1^
1)"
#1580000000
0!
02
1D
0O
1V
0]
0^
1`
0)"
#1590000000
1!
12
1O
1^
1)"
#1600000000
0!
02
0D
0O
0V
1]
0^
0`
0)"
#1610000000
1!
12
1O
1^
1)"
#1620000000
0!
02
1D
0O
1V
0]
0^
1`
0)"
#1630000000
1!
12
1O
1^
1)"
#1640000000
0!
02
0D
0O
0V
1]
0^
0`
0)"
#1650000000
1!
12
1O
1^
1)"
#1660000000
0!
02
1D
0O
1V
0]
0^
1`
0)"
#1670000000
1!
12
1O
1^
1)"
#1680000000
0!
02
0D
0O
0V
1]
0^
0`
0)"
#1690000000
1!
12
1O
1^
1)"
#1700000000
0!
02
1D
0O
1V
0]
0^
1`
0)"
#1710000000
1!
12
1O
1^
1)"
#1720000000
0!
02
0D
0O
0V
1]
0^
0`
0)"
#1730000000
1!
12
1O
1^
1)"
#1740000000
0!
02
1D
0O
1V
0]
0^
1`
0)"
#1750000000
1!
12
1O
1^
1)"
#1760000000
0!
02
0D
0O
0V
1]
0^
0`
0)"
#1770000000
1!
12
1O
1^
1)"
#1780000000
0!
02
1D
0O
1V
0]
0^
1`
0)"
#1790000000
1!
12
1O
1^
1)"
#1800000000
0!
02
0D
0O
0V
1]
0^
0`
0)"
#1810000000
1!
12
1O
1^
1)"
#1820000000
0!
02
1D
0O
1V
0]
0^
1`
0)"
#1830000000
1!
12
1O
1^
1)"
#1840000000
0!
02
0D
0O
0V
1]
0^
0`
0)"
#1850000000
1!
12
1O
1^
1)"
#1860000000
0!
02
1D
0O
1V
0]
0^
1`
0)"
#1870000000
1!
12
1O
1^
1)"
#1880000000
0!
02
0D
0O
0V
1]
0^
0`
0)"
#1890000000
1!
12
1O
1^
1)"
#1900000000
0!
02
1D
0O
1V
0]
0^
1`
0)"
#1910000000
1!
12
1O
1^
1)"
#1920000000
0!
02
0D
0O
0V
1]
0^
0`
0)"
#1930000000
1!
12
1O
1^
1)"
#1940000000
0!
02
1D
0O
1V
0]
0^
1`
0)"
#1950000000
1!
12
1O
1^
1)"
#1960000000
0!
02
0D
0O
0V
1]
0^
0`
0)"
#1970000000
1!
12
1O
1^
1)"
#1980000000
0!
02
1D
0O
1V
0]
0^
1`
0)"
#1990000000
1!
12
1O
1^
1)"
#2000000000
0!
02
0D
0O
0V
1]
0^
0`
0)"
#2010000000
1!
12
1O
1^
1)"
#2020000000
0!
02
1D
0O
1V
0]
0^
1`
0)"
#2030000000
1!
12
1O
1^
1)"
#2040000000
0!
02
0D
0O
0V
1]
0^
0`
0)"
#2050000000
1!
12
1O
1^
1)"
#2060000000
0!
02
1D
0O
1V
0]
0^
1`
0)"
#2070000000
1!
12
1O
1^
1)"
#2080000000
0!
02
0D
0O
0V
1]
0^
0`
0)"
#2090000000
1!
12
1O
1^
1)"
#2100000000
0!
02
1D
0O
1V
0]
0^
1`
0)"
#2110000000
1!
12
1O
1^
1)"
#2120000000
0!
02
0D
0O
0V
1]
0^
0`
0)"
#2130000000
1!
12
1O
1^
1)"
#2140000000
0!
02
1D
0O
1V
0]
0^
1`
0)"
#2150000000
1!
12
1O
1^
1)"
#2160000000
0!
02
0D
0O
0V
1]
0^
0`
0)"
#2170000000
1!
12
1O
1^
1)"
#2180000000
0!
02
1D
0O
1V
0]
0^
1`
0)"
#2190000000
1!
12
1O
1^
1)"
#2200000000
0!
02
0D
0O
0V
1]
0^
0`
0)"
#2210000000
1!
12
1O
1^
1)"
#2220000000
0!
02
1D
0O
1V
0]
0^
1`
0)"
#2230000000
1!
12
1O
1^
1)"
#2240000000
0!
02
0D
0O
0V
1]
0^
0`
0)"
#2250000000
1!
12
1O
1^
1)"
#2260000000
0!
02
1D
0O
1V
0]
0^
1`
0)"
#2270000000
1!
12
1O
1^
1)"
#2280000000
0!
02
0D
0O
0V
1]
0^
0`
0)"
#2290000000
1!
12
1O
1^
1)"
#2300000000
0!
02
1D
0O
1V
0]
0^
1`
0)"
#2310000000
1!
12
1O
1^
1)"
#2320000000
0!
02
0D
0O
0V
1]
0^
0`
0)"
#2330000000
1!
12
1O
1^
1)"
#2340000000
0!
02
1D
0O
1V
0]
0^
1`
0)"
#2350000000
1!
12
1O
1^
1)"
#2360000000
0!
02
0D
0O
0V
1]
0^
0`
0)"
#2370000000
1!
12
1O
1^
1)"
#2380000000
0!
02
1D
0O
1V
0]
0^
1`
0)"
#2390000000
1!
12
1O
1^
1)"
#2400000000
0!
02
0D
0O
0V
1]
0^
0`
0)"
#2410000000
1!
12
1O
1^
1)"
#2420000000
0!
02
1D
0O
1V
0]
0^
1`
0)"
#2430000000
1!
12
1O
1^
1)"
#2440000000
0!
02
0D
0O
0V
1]
0^
0`
0)"
#2450000000
1!
12
1O
1^
1)"
#2460000000
0!
02
1D
0O
1V
0]
0^
1`
0)"
#2470000000
1!
12
1O
1^
1)"
#2480000000
0!
02
0D
0O
0V
1]
0^
0`
0)"
#2490000000
1!
12
1O
1^
1)"
#2500000000
0!
02
1D
0O
1V
0]
0^
1`
0)"
#2510000000
1!
12
1O
1^
1)"
#2520000000
0!
02
0D
0O
0V
1]
0^
0`
0)"
#2530000000
1!
12
1O
1^
1)"
#2540000000
0!
02
1D
0O
1V
0]
0^
1`
0)"
#2550000000
1!
12
1O
1^
1)"
#2560000000
0!
02
0D
0O
0V
1]
0^
0`
0)"
#2570000000
1!
12
1O
1^
1)"
#2580000000
0!
02
1D
0O
1V
0]
0^
1`
0)"
#2590000000
1!
12
1O
1^
1)"
#2600000000
0!
02
0D
0O
0V
1]
0^
0`
0)"
#2610000000
1!
12
1O
1^
1)"
#2620000000
0!
02
1D
0O
1V
0]
0^
1`
0)"
#2630000000
1!
12
1O
1^
1)"
#2640000000
0!
02
0D
0O
0V
1]
0^
0`
0)"
#2650000000
1!
12
1O
1^
1)"
#2660000000
0!
02
1D
0O
1V
0]
0^
1`
0)"
#2670000000
1!
12
1O
1^
1)"
#2680000000
0!
02
0D
0O
0V
1]
0^
0`
0)"
#2690000000
1!
12
1O
1^
1)"
#2700000000
0!
02
1D
0O
1V
0]
0^
1`
0)"
#2710000000
1!
12
1O
1^
1)"
#2720000000
0!
02
0D
0O
0V
1]
0^
0`
0)"
#2730000000
1!
12
1O
1^
1)"
#2740000000
0!
02
1D
0O
1V
0]
0^
1`
0)"
#2750000000
1!
12
1O
1^
1)"
#2760000000
0!
02
0D
0O
0V
1]
0^
0`
0)"
#2770000000
1!
12
1O
1^
1)"
#2780000000
0!
02
1D
0O
1V
0]
0^
1`
0)"
#2790000000
1!
12
1O
1^
1)"
#2800000000
0!
02
0D
0O
0V
1]
0^
0`
0)"
#2810000000
1!
12
1O
1^
1)"
#2820000000
0!
02
1D
0O
1V
0]
0^
1`
0)"
#2830000000
1!
12
1O
1^
1)"
#2840000000
0!
02
0D
0O
0V
1]
0^
0`
0)"
#2850000000
1!
12
1O
1^
1)"
#2860000000
0!
02
1D
0O
1V
0]
0^
1`
0)"
#2870000000
1!
12
1O
1^
1)"
#2880000000
0!
02
0D
0O
0V
1]
0^
0`
0)"
#2890000000
1!
12
1O
1^
1)"
#2900000000
0!
02
1D
0O
1V
0]
0^
1`
0)"
#2910000000
1!
12
1O
1^
1)"
#2920000000
0!
02
0D
0O
0V
1]
0^
0`
0)"
#2930000000
1!
12
1O
1^
1)"
#2940000000
0!
02
1D
0O
1V
0]
0^
1`
0)"
#2950000000
1!
12
1O
1^
1)"
#2960000000
0!
02
0D
0O
0V
1]
0^
0`
0)"
#2970000000
1!
12
1O
1^
1)"
#2980000000
0!
02
1D
0O
1V
0]
0^
1`
0)"
#2990000000
1!
12
1O
1^
1)"
#3000000000
0!
02
0D
0O
0V
1]
0^
0`
0)"
#3010000000
1!
12
1O
1^
1)"
#3020000000
0!
02
1D
0O
1V
0]
0^
1`
0)"
#3030000000
1!
12
1O
1^
1)"
#3040000000
0!
02
0D
0O
0V
1]
0^
0`
0)"
#3050000000
1!
12
1O
1^
1)"
#3060000000
0!
02
1D
0O
1V
0]
0^
1`
0)"
#3070000000
1!
12
1O
1^
1)"
#3080000000
0!
02
0D
0O
0V
1]
0^
0`
0)"
#3090000000
1!
12
1O
1^
1)"
#3100000000
0!
02
1D
0O
1V
0]
0^
1`
0)"
#3110000000
1!
12
1O
1^
1)"
#3120000000
0!
02
0D
0O
0V
1]
0^
0`
0)"
#3130000000
1!
12
1O
1^
1)"
#3140000000
0!
02
1D
0O
1V
0]
0^
1`
0)"
#3150000000
1!
12
1O
1^
1)"
#3160000000
0!
02
0D
0O
0V
1]
0^
0`
0)"
#3170000000
1!
12
1O
1^
1)"
#3180000000
0!
02
1D
0O
1V
0]
0^
1`
0)"
#3190000000
1!
12
1O
1^
1)"
#3200000000
0!
02
0D
0O
0V
1]
0^
0`
0)"
#3210000000
1!
12
1O
1^
1)"
#3220000000
0!
02
1D
0O
1V
0]
0^
1`
0)"
#3230000000
1!
12
1O
1^
1)"
#3240000000
0!
02
0D
0O
0V
1]
0^
0`
0)"
#3250000000
1!
12
1O
1^
1)"
#3260000000
0!
02
1D
0O
1V
0]
0^
1`
0)"
#3270000000
1!
12
1O
1^
1)"
#3280000000
0!
02
0D
0O
0V
1]
0^
0`
0)"
#3290000000
1!
12
1O
1^
1)"
#3300000000
0!
02
1D
0O
1V
0]
0^
1`
0)"
#3310000000
1!
12
1O
1^
1)"
#3320000000
0!
02
0D
0O
0V
1]
0^
0`
0)"
#3330000000
1!
12
1O
1^
1)"
#3340000000
0!
02
1D
0O
1V
0]
0^
1`
0)"
#3350000000
1!
12
1O
1^
1)"
#3360000000
0!
02
0D
0O
0V
1]
0^
0`
0)"
#3370000000
1!
12
1O
1^
1)"
#3380000000
0!
02
1D
0O
1V
0]
0^
1`
0)"
#3390000000
1!
12
1O
1^
1)"
#3400000000
0!
02
0D
0O
0V
1]
0^
0`
0)"
#3410000000
1!
12
1O
1^
1)"
#3420000000
0!
02
1D
0O
1V
0]
0^
1`
0)"
#3430000000
1!
12
1O
1^
1)"
#3440000000
0!
02
0D
0O
0V
1]
0^
0`
0)"
#3450000000
1!
12
1O
1^
1)"
#3460000000
0!
02
1D
0O
1V
0]
0^
1`
0)"
#3470000000
1!
12
1O
1^
1)"
#3480000000
0!
02
0D
0O
0V
1]
0^
0`
0)"
#3490000000
1!
12
1O
1^
1)"
#3500000000
0!
02
1D
0O
1V
0]
0^
1`
0)"
#3510000000
1!
12
1O
1^
1)"
#3520000000
0!
02
0D
0O
0V
1]
0^
0`
0)"
#3530000000
1!
12
1O
1^
1)"
#3540000000
0!
02
1D
0O
1V
0]
0^
1`
0)"
#3550000000
1!
12
1O
1^
1)"
#3560000000
0!
02
0D
0O
0V
1]
0^
0`
0)"
#3570000000
1!
12
1O
1^
1)"
#3580000000
0!
02
1D
0O
1V
0]
0^
1`
0)"
#3590000000
1!
12
1O
1^
1)"
#3600000000
0!
02
0D
0O
0V
1]
0^
0`
0)"
