Nível 2 - Escalonador/nivel_2.vcd
$date
  Sat Nov  1 23:49:01 2025
$end
$version
  GHDL v0
$end
$timescale
  1 fs
$end
$scope module standard $end
$upscope $end
$scope module std_logic_1164 $end
$upscope $end
$scope module numeric_std $end
$upscope $end
$scope module tb_nivel_2 $end
$var reg 1 ! clk $end
$var reg 1 " reset $end
$var reg 5 # up_queue[4:0] $end
$var reg 1 $ up_queue_en $end
$var reg 5 % down_queue[4:0] $end
$var reg 1 & down_queue_en $end
$var reg 5 ' um_floor_sensor[4:0] $end
$var reg 5 ( dois_floor_sensor[4:0] $end
$var reg 5 ) tres_floor_sensor[4:0] $end
$var reg 2 * um_moving[1:0] $end
$var reg 2 + dois_moving[1:0] $end
$var reg 2 , tres_moving[1:0] $end
$var reg 5 - um_solicit_floor[4:0] $end
$var reg 5 . dois_solicit_floor[4:0] $end
$var reg 5 / tres_solicit_floor[4:0] $end
$var reg 1 0 solicit_dir $end
$var reg 1 1 solicit_en $end
$var reg 1 2 sim_finished $end
$scope module uut $end
$var reg 1 3 clk $end
$var reg 1 4 reset $end
$var reg 5 5 up_queue[4:0] $end
$var reg 1 6 up_queue_en $end
$var reg 5 7 down_queue[4:0] $end
$var reg 1 8 down_queue_en $end
$var reg 5 9 um_floor_sensor[4:0] $end
$var reg 5 : dois_floor_sensor[4:0] $end
$var reg 5 ; tres_floor_sensor[4:0] $end
$var reg 2 < um_moving[1:0] $end
$var reg 2 = dois_moving[1:0] $end
$var reg 2 > tres_moving[1:0] $end
$var reg 5 ? um_solicit_floor[4:0] $end
$var reg 5 @ dois_solicit_floor[4:0] $end
$var reg 5 A tres_solicit_floor[4:0] $end
$var reg 1 B solicit_dir $end
$var reg 1 C solicit_en $end
$var reg 5 D data_out[4:0] $end
$var reg 1 E data_dir $end
$var reg 5 F cham_ativa[4:0] $end
$var reg 1 G direction $end
$var reg 2 H um_elevator_cost[1:0] $end
$var reg 2 I dois_elevator_cost[1:0] $end
$var reg 2 J tres_elevator_cost[1:0] $end
$var reg 1 K enable $end
$var reg 5 L um_distancia[4:0] $end
$var reg 5 M dois_distancia[4:0] $end
$var reg 5 N tres_distancia[4:0] $end
$var reg 2 O elevador_vencedor_out[1:0] $end
$scope module u_fila $end
$var reg 1 P clk $end
$var reg 1 Q reset $end
$var reg 5 R up_queue[4:0] $end
$var reg 1 S up_wr_en $end
$var reg 5 T down_queue[4:0] $end
$var reg 1 U down_wr_en $end
$var reg 5 V data_out[4:0] $end
$var reg 1 W data_dir $end
$comment up_fila is not handled $end
$comment down_fila is not handled $end
$var reg 5 X down_rd_ptr[4:0] $end
$var reg 5 Y down_wr_ptr[4:0] $end
$var reg 5 Z up_rd_ptr[4:0] $end
$var reg 5 [ up_wr_ptr[4:0] $end
$var reg 5 \ up_qnt[4:0] $end
$var reg 5 ] down_qnt[4:0] $end
$var reg 1 ^ last_dir $end
$upscope $end
$scope module u_call_disp $end
$var reg 1 _ clk $end
$var reg 5 ` data_in[4:0] $end
$var reg 1 a data_dir $end
$var reg 5 b cham_ativa[4:0] $end
$var reg 1 c direction $end
$var reg 1 d data_en $end
$upscope $end
$scope module u_cost_calculator_um $end
$var reg 5 e call_floor[4:0] $end
$var reg 1 f direction $end
$var reg 5 g floor_sensor[4:0] $end
$var reg 2 h moving[1:0] $end
$var reg 2 i elevator_cost[1:0] $end
$var reg 1 j enable $end
$upscope $end
$scope module u_cost_calculator_dois $end
$var reg 5 k call_floor[4:0] $end
$var reg 1 l direction $end
$var reg 5 m floor_sensor[4:0] $end
$var reg 2 n moving[1:0] $end
$var reg 2 o elevator_cost[1:0] $end
$var reg 1 p enable $end
$upscope $end
$scope module u_cost_calculator_tres $end
$var reg 5 q call_floor[4:0] $end
$var reg 1 r direction $end
$var reg 5 s floor_sensor[4:0] $end
$var reg 2 t moving[1:0] $end
$var reg 2 u elevator_cost[1:0] $end
$var reg 1 v enable $end
$upscope $end
$scope module u_custo_distancia_um $end
$var reg 5 w chamada_ativa[4:0] $end
$var reg 5 x floor_sensor[4:0] $end
$var reg 5 y distancia[4:0] $end
$upscope $end
$scope module u_custo_distancia_dois $end
$var reg 5 z chamada_ativa[4:0] $end
$var reg 5 { floor_sensor[4:0] $end
$var reg 5 | distancia[4:0] $end
$upscope $end
$scope module u_custo_distancia_tres $end
$var reg 5 } chamada_ativa[4:0] $end
$var reg 5 !" floor_sensor[4:0] $end
$var reg 5 "" distancia[4:0] $end
$upscope $end
$scope module u_comparador_custo $end
$var reg 5 #" distancia_0_in[4:0] $end
$var reg 5 $" distancia_1_in[4:0] $end
$var reg 5 %" distancia_2_in[4:0] $end
$var reg 2 &" custo_elev_0_in[1:0] $end
$var reg 2 '" custo_elev_1_in[1:0] $end
$var reg 2 (" custo_elev_2_in[1:0] $end
$var reg 2 )" elevador_vencedor_out[1:0] $end
$upscope $end
$scope module u_gerador_saida $end
$var reg 1 *" clk $end
$var reg 1 +" enable $end
$var reg 5 ," chamada_ativa_in[4:0] $end
$var reg 1 -" direcao_in $end
$var reg 2 ." elevador_vencedor_in[1:0] $end
$var reg 5 /" solicite_0_out[4:0] $end
$var reg 5 0" solicite_1_out[4:0] $end
$var reg 5 1" solicite_2_out[4:0] $end
$var reg 1 2" descer_out $end
$var reg 1 3" solicit_enable_out $end
$upscope $end
$upscope $end
$upscope $end
$enddefinitions $end
#0
0!
0"
b01000 #
1$
b00010 %
1&
b11100 '
b11100 (
b11100 )
b01 *
b00 +
b10 ,
bUUUUU -
bUUUUU .
bUUUUU /
U0
U1
02
03
04
b01000 5
16
b00010 7
18
b11100 9
b11100 :
b11100 ;
b01 <
b00 =
b10 >
bUUUUU ?
bUUUUU @
bUUUUU A
UB
UC
bUUUUU D
UE
bUUUUU F
UG
bUU H
bUU I
bUU J
0K
bXXXXX L
bXXXXX M
bXXXXX N
b00 O
0P
0Q
b01000 R
1S
b00010 T
1U
bUUUUU V
UW
b00000 X
b00000 Y
b00000 Z
b00000 [
b00000 \
b00000 ]
1^
0_
bUUUUU `
Ua
bUUUUU b
Uc
1d
bUUUUU e
Uf
b11100 g
b01 h
bUU i
0j
bUUUUU k
Ul
b11100 m
b00 n
bUU o
0p
bUUUUU q
Ur
b11100 s
b10 t
bUU u
0v
bUUUUU w
b11100 x
bXXXXX y
bUUUUU z
b11100 {
bXXXXX |
bUUUUU }
b11100 !"
bXXXXX ""
bXXXXX #"
bXXXXX $"
bXXXXX %"
bUU &"
bUU '"
bUU ("
b00 )"
0*"
0+"
bUUUUU ,"
U-"
b00 ."
bUUUUU /"
bUUUUU 0"
bUUUUU 1"
U2"
U3"
#10000000
1!
b00000 -
b00000 .
b00000 /
01
13
b00000 ?
b00000 @
b00000 A
0C
b00000 D
1P
b00000 V
b00001 Y
b00001 [
b00001 \
b00001 ]
1_
b00000 `
0d
1*"
b00000 /"
b00000 0"
b00000 1"
03"
#20000000
0!
0$
0&
03
06
08
b00010 D
0E
0P
0S
0U
b00010 V
0W
b00001 X
b00000 ]
0^
0_
b00010 `
0a
1d
0*"
#30000000
1!
13
b00000 D
b00010 F
0G
b10 H
b01 I
b10 J
1K
b11010 L
b11010 M
b11010 N
b01 O
1P
b00000 V
1_
b00000 `
b00010 b
0c
0d
b00010 e
0f
b10 i
1j
b00010 k
0l
b01 o
1p
b00010 q
0r
b10 u
1v
b00010 w
b11010 y
b00010 z
b11010 |
b00010 }
b11010 ""
b11010 #"
b11010 $"
b11010 %"
b10 &"
b01 '"
b10 ("
b01 )"
1*"
1+"
b00010 ,"
0-"
b01 ."
#40000000
0!
03
b01000 D
1E
0P
b01000 V
1W
b00001 Z
b00000 \
1^
0_
b01000 `
1a
1d
0*"
#50000000
1!
b00010 .
00
11
13
b00010 @
0B
1C
b00000 D
b01000 F
1G
b10100 L
b10100 M
b10100 N
1P
b00000 V
1_
b00000 `
b01000 b
1c
0d
b01000 e
1f
b10 i
1j
b01000 k
1l
b01 o
1p
b01000 q
1r
b10 u
1v
b01000 w
b10100 y
b01000 z
b10100 |
b01000 }
b10100 ""
b10100 #"
b10100 $"
b10100 %"
1*"
b01000 ,"
1-"
b00010 0"
02"
13"
#60000000
0!
03
0P
0^
0_
0*"
#70000000
1!
b01000 .
10
13
b01000 @
1B
b00000 F
0K
1P
1_
b00000 b
b00000 e
0j
b00000 k
0p
b00000 q
0v
b00000 w
b00000 z
b00000 }
1*"
0+"
b00000 ,"
b01000 0"
12"
#80000000
0!
03
0E
0P
0W
1^
0_
0a
0*"
#90000000
1!
b00000 .
01
13
b00000 @
0C
1P
1_
1*"
b00000 0"
03"
#100000000
0!
03
1E
0P
1W
0^
0_
1a
0*"
#110000000
1!
13
1P
1_
1*"
#120000000
0!
12
03
0E
0P
0W
1^
0_
0a
0*"
